<svg xmlns="http://www.w3.org/2000/svg" xmlns:xlink="http://www.w3.org/1999/xlink" width="110" height="110" viewBox="0 0 110 110">
    <defs>
        <path id="a" d="M.378.478h11.14v17.588H.378z"/>
        <path id="c" d="M0 .223h11.473v18.076H0z"/>
    </defs>
    <g fill="none" fill-rule="evenodd">
        <circle cx="55" cy="55" r="55" fill="#F7AD19"/>
        <g transform="translate(74.204 57.496)">
            <mask id="b" fill="#fff">
                <use xlink:href="#a"/>
            </mask>
            <path fill="#FFF" d="M10.79 7.526L4.127 1.11a2.145 2.145 0 0 0-3.153.122 2.437 2.437 0 0 0-.597 1.624v12.832c-.009 1.304.984 2.368 2.215 2.378a2.17 2.17 0 0 0 1.535-.632l6.661-6.415c.911-.879.978-2.372.148-3.337a2.381 2.381 0 0 0-.148-.156" mask="url(#b)"/>
        </g>
        <path fill="#FFF" d="M49.965 61.607c-1.13-.003-2.043-.95-2.047-2.12v-12.6H41.64v15.728c.003 3.03 2.376 5.487 5.305 5.491h33.772v-6.499H49.965z"/>
        <g transform="translate(23.404 36.277)">
            <mask id="d" fill="#fff">
                <use xlink:href="#c"/>
            </mask>
            <path fill="#FFF" d="M.748 11.056L7.61 17.65c.93.912 2.384.855 3.248-.126.4-.454.619-1.05.614-1.67V2.668c.01-1.34-1.013-2.434-2.281-2.444A2.234 2.234 0 0 0 7.61.872l-6.863 6.6c-.937.905-1.003 2.44-.146 3.43.046.054.095.105.146.154" mask="url(#d)"/>
        </g>
        <path fill="#FFF" d="M56.761 49.325c1.13.004 2.043.938 2.046 2.092V62.8h6.28V48.363c.013-2.999-2.354-5.441-5.287-5.455H26.009v6.417h30.752z"/>
    </g>
</svg>
