<svg xmlns="http://www.w3.org/2000/svg" width="998" height="763" viewBox="0 0 998 763">
    <path fill="#008D6A" fill-rule="evenodd" d="M72.402 229.34L816.04 8.295a200 200 0 0 1 83.221-6.562l424.996 56.235c54.751 7.245 93.263 57.502 86.018 112.253a100 100 0 0 1-42.388 69.222l-708.36 488.191c-73.585 50.715-171.886 46.455-240.808-10.435L37.238 402.318c-42.593-35.158-48.621-98.187-13.464-140.78a100 100 0 0 1 48.628-32.197z"/>
</svg>
