<?xml version="1.0" encoding="UTF-8"?>
<svg width="991px" height="439px" viewBox="0 0 991 439" version="1.1" xmlns="http://www.w3.org/2000/svg" xmlns:xlink="http://www.w3.org/1999/xlink">
    <!-- Generator: Sketch 49.3 (51167) - http://www.bohemiancoding.com/sketch -->
    <title>Rectangle 8 Copy 11</title>
    <desc>Created with Sketch.</desc>
    <defs></defs>
    <g id="Page-1" stroke="none" stroke-width="1" fill="none" fill-rule="evenodd">
        <g id="Mobile---Landing-Page-Copy" transform="translate(0.000000, -5055.000000)" fill="#008D6A">
            <path d="M139.233229,5116.9871 L569.519948,5057.73788 C613.438237,5051.69046 658.121094,5060.4065 696.546911,5082.51631 L1112.0115,5321.57031 L1112.0115,5496 L-95.016269,5496 L-95.016269,5364.82812 L74.9328042,5153.40145 C90.9308912,5133.49888 113.936634,5120.47037 139.233229,5116.9871 Z" id="Rectangle-8-Copy-11"></path>
        </g>
    </g>
</svg>